{
    "variable": [
        {
            "id": "baseUrl",
            "key": "baseUrl",
            "type": "string",
            "name": "string",
            "value": "http:\/\/localhost"
        }
    ],
    "info": {
        "name": "Laravel",
        "_postman_id": "ce80f053-6b21-4354-8990-a3a24aab20ad",
        "description": "",
        "schema": "https:\/\/schema.getpostman.com\/json\/collection\/v2.1.0\/collection.json"
    },
    "item": [
        {
            "name": "Auth endpoints",
            "description": "",
            "item": [
                {
                    "name": "Handle a login request to the application.",
                    "request": {
                        "url": {
                            "host": "{{baseUrl}}",
                            "path": "api\/login",
                            "query": [],
                            "raw": "{{baseUrl}}\/api\/login"
                        },
                        "method": "POST",
                        "header": [
                            {
                                "key": "Content-Type",
                                "value": "application\/json"
                            },
                            {
                                "key": "Accept",
                                "value": "application\/json"
                            }
                        ],
                        "body": {
                            "mode": "raw",
                            "raw": "{\"email\":\"demo@demo.com\",\"password\":\"password\"}"
                        },
                        "description": "",
                        "auth": {
                            "type": "noauth"
                        }
                    },
                    "response": [
                        {
                            "header": [],
                            "code": 422,
                            "body": "{\n   \"message\": \"The given data was invalid.\",\n   \"errors\": {\n       \"email\": [\n           \"The email field is required.\"\n       ]\n   }\n}",
                            "name": "Validation error"
                        }
                    ]
                },
                {
                    "name": "Handle a registration request for the application.",
                    "request": {
                        "url": {
                            "host": "{{baseUrl}}",
                            "path": "api\/register",
                            "query": [],
                            "raw": "{{baseUrl}}\/api\/register"
                        },
                        "method": "POST",
                        "header": [
                            {
                                "key": "Content-Type",
                                "value": "application\/json"
                            },
                            {
                                "key": "Accept",
                                "value": "application\/json"
                            }
                        ],
                        "body": {
                            "mode": "raw",
                            "raw": "{\"name\":\"Demo\",\"email\":\"demo@demo.com\",\"password\":\"password\",\"password_confirmation\":\"password\"}"
                        },
                        "description": "",
                        "auth": {
                            "type": "noauth"
                        }
                    },
                    "response": [
                        {
                            "header": [],
                            "code": 200,
                            "body": "{\n   \"token\": \"eyJ0eXAiOiJKV1QiLCJhbGciOiJSUzI1NiJ9.eyJhdWQiOiIxIiwianRpIjoiNDc5OTg4MjFkMTZlZjUxOTRjOWZhYWFkMzFlZDY0NzljMzliZWMzMjg1NjU2YWViNzdkMmM3ZGMwOGNhNGFiOTZiOTVkZmEwNTE3OWE0ZTciLCJpYXQiOjE1OTAzOTEzNDMsIm5iZiI6MTU5MDM5MTM0MywiZXhwIjoxNjIxOTI3MzQzLCJzdWIiOiIyIiwic2NvcGVzIjpbXX0.onsWJtrF9UT2XEbSsYQbVLvr-TZKGbqIoj4w5W-sEqbrcGep-mRuHJDY1-tY7E_-KxSV3yTrOAtyWFIv51atVFs5m6abF-QWNUpGYMlfEhjQbN6S5QOLXD7deiatSGH0dIXX6v7j7IdUeLgJ5t_6z7oD2s0bAuzfhrHCM9wf7Plyqv7p4-E6ROJ5Atv6IzFFA8dA6eEZWqF_SwOXJMEqyo3Gas7AzNoUSVear8d2sToLZFUv9lPXubp3_5kNN65Ri7bVQXJh0GqCBNN2ySWlO1ODaiIoNPSMOYpBLUaERRTh2AVzDLMvEcKQ5HQFLSqA1wFzABlOweF-7O1mvzdYLSmx8yCvlrIZxnBE2-c69IGmSJKowoczc2lNp96hNept6K-h94xQomC_bd8RajojBP928x-NLPhCH2bg98He0np_xBkm6M91z6M1ZnReZ7s45ViPOTovR6nW0QuqmH6LdF6JEeLc026DKLDX7Ap7fGjq-jFH-tbB_jp0wGGoJfTBLQllftTz9f86oqTXCf85_4fnMgTxB2qX_LBfJw4s6oa1Oex-EpBEprM4C0Awtlo9IkNNRBKLhxa7wPwMHFR_y9w7ZgEbq2pd-qDb4WMcDFfR5mTpCcYYrhufHSa0gnDDDAOanVSaFf58V5T_kKnb72_md7JFf87rhOoSjML_1Ks\",\n   \"user\": {\n       \"id\": 2,\n       \"name\": \"Demo\",\n       \"email\": \"demo@demo.com\",\n       \"email_verified_at\": null,\n       \"created_at\": \"2020-05-25T06:21:47.000000Z\",\n       \"updated_at\": \"2020-05-25T06:21:47.000000Z\"\n   }\n}",
                            "name": ""
                        },
                        {
                            "header": [],
                            "code": 422,
                            "body": "{\n   \"message\": \"The given data was invalid.\",\n   \"errors\": {\n       \"email\": [\n           \"The email field is required.\"\n       ]\n   }\n}",
                            "name": "Validation error"
                        }
                    ]
                },
                {
                    "name": "Mark the authenticated user's email address as verified.",
                    "request": {
                        "url": {
                            "host": "{{baseUrl}}",
                            "path": "api\/email\/verify\/:hash",
                            "query": [],
                            "raw": "{{baseUrl}}\/api\/email\/verify\/:hash",
                            "variable": [
                                {
                                    "id": "hash",
                                    "key": "hash",
                                    "value": "eyJpdiI6IjROTEh4Vjdyc085T1poTjlJa2hKNUE9PSIsInZhbHVlIjoiQ0lQOHVSblFvd0xROEtpRkNLd1pSUT09IiwibWFjIjoiMmRkNTNmNzFiZThkMjI3NzE3NGExY2FhYTRkMGI1ZjExODU1YTM5MzYzZTQyODNhYjQxOTIxNjU3ZTUxYWI5MSJ9",
                                    "description": "Email verification hash."
                                }
                            ]
                        },
                        "method": "GET",
                        "header": [
                            {
                                "key": "Content-Type",
                                "value": "application\/json"
                            },
                            {
                                "key": "Accept",
                                "value": "application\/json"
                            }
                        ],
                        "body": null,
                        "description": ""
                    },
                    "response": [
                        {
                            "header": [],
                            "code": 202,
                            "body": "{}",
                            "name": "Email has been verified"
                        },
                        {
                            "header": [],
                            "code": 204,
                            "body": "{}",
                            "name": "Email already verified"
                        },
                        {
                            "header": [],
                            "code": 400,
                            "body": "{\n    \"message\": \"The link is wrong\"\n}",
                            "name": "Wrong link"
                        },
                        {
                            "header": [],
                            "code": 400,
                            "body": "{\n    \"message\": \"Unauthenticated.\"\n}",
                            "name": "Unauthenticated"
                        }
                    ]
                },
                {
                    "name": "Resend the email verification notification.",
                    "request": {
                        "url": {
                            "host": "{{baseUrl}}",
                            "path": "api\/email\/resend",
                            "query": [],
                            "raw": "{{baseUrl}}\/api\/email\/resend"
                        },
                        "method": "GET",
                        "header": [
                            {
                                "key": "Content-Type",
                                "value": "application\/json"
                            },
                            {
                                "key": "Accept",
                                "value": "application\/json"
                            }
                        ],
                        "body": null,
                        "description": ""
                    },
                    "response": [
                        {
                            "header": [],
                            "code": 202,
                            "body": "{}",
                            "name": "Success"
                        },
                        {
                            "header": [],
                            "code": 400,
                            "body": "{\n    \"message\": \"Unauthenticated.\"\n}",
                            "name": "Unauthenticated"
                        }
                    ]
                },
                {
                    "name": "Shows authenticated user information.",
                    "request": {
                        "url": {
                            "host": "{{baseUrl}}",
                            "path": "api\/user",
                            "query": [],
                            "raw": "{{baseUrl}}\/api\/user"
                        },
                        "method": "GET",
                        "header": [
                            {
                                "key": "Content-Type",
                                "value": "application\/json"
                            },
                            {
                                "key": "Accept",
                                "value": "application\/json"
                            }
                        ],
                        "body": null,
                        "description": ""
                    },
                    "response": [
                        {
                            "header": [],
                            "code": 200,
                            "body": "{\n    \"id\": 2,\n    \"name\": \"Demo\",\n    \"email\": \"demo@demo.com\",\n    \"email_verified_at\": null,\n    \"created_at\": \"2020-05-25T06:21:47.000000Z\",\n    \"updated_at\": \"2020-05-25T06:21:47.000000Z\"\n}",
                            "name": ""
                        },
                        {
                            "header": [],
                            "code": 400,
                            "body": "{\n    \"message\": \"Unauthenticated.\"\n}",
                            "name": "Unauthenticated"
                        }
                    ]
                },
                {
                    "name": "Log the user out of the application.",
                    "request": {
                        "url": {
                            "host": "{{baseUrl}}",
                            "path": "api\/logout",
                            "query": [],
                            "raw": "{{baseUrl}}\/api\/logout"
                        },
                        "method": "POST",
                        "header": [
                            {
                                "key": "Content-Type",
                                "value": "application\/json"
                            },
                            {
                                "key": "Accept",
                                "value": "application\/json"
                            }
                        ],
                        "body": null,
                        "description": ""
                    },
                    "response": [
                        {
                            "header": [],
                            "code": 204,
                            "body": "{}",
                            "name": "Success"
                        },
                        {
                            "header": [],
                            "code": 400,
                            "body": "{\n    \"message\": \"Unauthenticated.\"\n}",
                            "name": "Unauthenticated"
                        }
                    ]
                }
            ]
        }
    ],
    "auth": {
        "type": "noauth"
    }
}